#clusters,Bandwidth,Instance,Type,block_size,time
4,50,cameraman.png,Image,32,130.0
20,15,g2-8-20.txt,Points,32,137.0
5,50,italian-street.png,Image,32,10711.0
3,50,lena.png,Image,32,475.0
199,100,KDDCUP04Bio.txt,Points,32,1647.0
4,50,cameraman.png,Image,64,108.0
20,15,g2-8-20.txt,Points,64,129.0
5,50,italian-street.png,Image,64,9446.0
3,50,lena.png,Image,64,421.0
199,100,KDDCUP04Bio.txt,Points,64,1413.0
1,50,cameraman.png,Image,96,240.0
145,15,g2-8-20.txt,Points,96,1621.0
1,50,italian-street.png,Image,96,19222.0
1,50,lena.png,Image,96,584.0
135,100,KDDCUP04Bio.txt,Points,96,6861.0
4,50,cameraman.png,Image,128,107.0
20,15,g2-8-20.txt,Points,128,127.0
5,50,italian-street.png,Image,128,9430.0
3,50,lena.png,Image,128,416.0
199,100,KDDCUP04Bio.txt,Points,128,1413.0
3,50,cameraman.png,Image,160,147.0
97,15,g2-8-20.txt,Points,160,864.0
1,50,italian-street.png,Image,160,26435.0
1,50,lena.png,Image,160,789.0
159,100,KDDCUP04Bio.txt,Points,160,5247.0
1,50,cameraman.png,Image,192,245.0
145,15,g2-8-20.txt,Points,192,1564.0
1,50,italian-street.png,Image,192,19831.0
1,50,lena.png,Image,192,602.0
135,100,KDDCUP04Bio.txt,Points,192,7185.0
1,50,cameraman.png,Image,224,197.0
133,15,g2-8-20.txt,Points,224,66.0
1,50,italian-street.png,Image,224,18895.0
1,50,lena.png,Image,224,531.0
122,100,KDDCUP04Bio.txt,Points,224,9402.0
4,50,cameraman.png,Image,256,110.0
20,15,g2-8-20.txt,Points,256,131.0
5,50,italian-street.png,Image,256,9767.0
3,50,lena.png,Image,256,429.0
199,100,KDDCUP04Bio.txt,Points,256,1487.0
3,50,cameraman.png,Image,288,119.0
92,15,g2-8-20.txt,Points,288,4999.0
2,50,italian-street.png,Image,288,36591.0
2,50,lena.png,Image,288,557.0
180,100,KDDCUP04Bio.txt,Points,288,3820.0
3,50,cameraman.png,Image,320,152.0
97,15,g2-8-20.txt,Points,320,876.0
1,50,italian-street.png,Image,320,27821.0
1,50,lena.png,Image,320,825.0
159,100,KDDCUP04Bio.txt,Points,320,5585.0
1,50,cameraman.png,Image,352,335.0
115,15,g2-8-20.txt,Points,352,5193.0
1,50,italian-street.png,Image,352,24329.0
1,50,lena.png,Image,352,711.0
130,100,KDDCUP04Bio.txt,Points,352,11463.0
1,50,cameraman.png,Image,384,255.0
145,15,g2-8-20.txt,Points,384,1632.0
1,50,italian-street.png,Image,384,20912.0
1,50,lena.png,Image,384,632.0
135,100,KDDCUP04Bio.txt,Points,384,7653.0
1,50,cameraman.png,Image,416,250.0
137,15,g2-8-20.txt,Points,416,4133.0
1,50,italian-street.png,Image,416,21260.0
1,50,lena.png,Image,416,580.0
128,100,KDDCUP04Bio.txt,Points,416,11812.0
1,50,cameraman.png,Image,448,209.0
133,15,g2-8-20.txt,Points,448,67.0
1,50,italian-street.png,Image,448,20577.0
1,50,lena.png,Image,448,573.0
122,100,KDDCUP04Bio.txt,Points,448,10419.0
1,50,cameraman.png,Image,480,210.0
132,15,g2-8-20.txt,Points,480,84.0
1,50,italian-street.png,Image,480,20137.0
1,50,lena.png,Image,480,573.0
88,100,KDDCUP04Bio.txt,Points,480,9665.0
4,50,cameraman.png,Image,512,116.0
20,15,g2-8-20.txt,Points,512,132.0
5,50,italian-street.png,Image,512,10483.0
3,50,lena.png,Image,512,460.0
199,100,KDDCUP04Bio.txt,Points,512,1591.0
4,50,cameraman.png,Image,544,113.0
49,15,g2-8-20.txt,Points,544,139.0
4,50,italian-street.png,Image,544,13062.0
3,50,lena.png,Image,544,504.0
191,100,KDDCUP04Bio.txt,Points,544,5628.0
3,50,cameraman.png,Image,576,129.0
92,15,g2-8-20.txt,Points,576,5190.0
2,50,italian-street.png,Image,576,41202.0
2,50,lena.png,Image,576,621.0
180,100,KDDCUP04Bio.txt,Points,576,4369.0
3,50,cameraman.png,Image,608,138.0
91,15,g2-8-20.txt,Points,608,5207.0
1,50,italian-street.png,Image,608,35444.0
1,50,lena.png,Image,608,893.0
169,100,KDDCUP04Bio.txt,Points,608,9326.0
3,50,cameraman.png,Image,640,162.0
97,15,g2-8-20.txt,Points,640,897.0
1,50,italian-street.png,Image,640,30291.0
1,50,lena.png,Image,640,892.0
159,100,KDDCUP04Bio.txt,Points,640,6184.0
2,50,cameraman.png,Image,672,412.0
134,15,g2-8-20.txt,Points,672,2711.0
1,50,italian-street.png,Image,672,27200.0
1,50,lena.png,Image,672,772.0
158,100,KDDCUP04Bio.txt,Points,672,7789.0
1,50,cameraman.png,Image,704,381.0
115,15,g2-8-20.txt,Points,704,5409.0
1,50,italian-street.png,Image,704,29139.0
1,50,lena.png,Image,704,844.0
130,100,KDDCUP04Bio.txt,Points,704,13968.0
1,50,cameraman.png,Image,736,331.0
142,15,g2-8-20.txt,Points,736,1689.0
1,50,italian-street.png,Image,736,27972.0
1,50,lena.png,Image,736,838.0
140,100,KDDCUP04Bio.txt,Points,736,9331.0
1,50,cameraman.png,Image,768,287.0
145,15,g2-8-20.txt,Points,768,1645.0
1,50,italian-street.png,Image,768,24846.0
1,50,lena.png,Image,768,740.0
135,100,KDDCUP04Bio.txt,Points,768,9196.0
1,50,cameraman.png,Image,800,279.0
138,15,g2-8-20.txt,Points,800,626.0
1,50,italian-street.png,Image,800,25049.0
1,50,lena.png,Image,800,657.0
124,100,KDDCUP04Bio.txt,Points,800,9986.0
1,50,cameraman.png,Image,832,270.0
137,15,g2-8-20.txt,Points,832,4256.0
1,50,italian-street.png,Image,832,23956.0
1,50,lena.png,Image,832,646.0
128,100,KDDCUP04Bio.txt,Points,832,13367.0
1,50,cameraman.png,Image,864,228.0
138,15,g2-8-20.txt,Points,864,89.0
1,50,italian-street.png,Image,864,23959.0
1,50,lena.png,Image,864,646.0
111,100,KDDCUP04Bio.txt,Points,864,7154.0
1,50,cameraman.png,Image,896,226.0
133,15,g2-8-20.txt,Points,896,69.0
1,50,italian-street.png,Image,896,23029.0
1,50,lena.png,Image,896,635.0
122,100,KDDCUP04Bio.txt,Points,896,11725.0
1,50,cameraman.png,Image,928,228.0
144,15,g2-8-20.txt,Points,928,1234.0
1,50,italian-street.png,Image,928,22836.0
1,50,lena.png,Image,928,640.0
119,100,KDDCUP04Bio.txt,Points,928,8793.0
1,50,cameraman.png,Image,960,226.0
132,15,g2-8-20.txt,Points,960,87.0
1,50,italian-street.png,Image,960,22397.0
1,50,lena.png,Image,960,629.0
88,100,KDDCUP04Bio.txt,Points,960,10787.0
1,50,cameraman.png,Image,992,218.0
134,15,g2-8-20.txt,Points,992,71.0
1,50,italian-street.png,Image,992,21081.0
1,50,lena.png,Image,992,634.0
95,100,KDDCUP04Bio.txt,Points,992,11198.0
